<svg version="1.1" xmlns="http://www.w3.org/2000/svg" xmlns:xlink="http://www.w3.org/1999/xlink"
x="0px" y="0px" viewBox="0 0 24 24" xml:space="preserve" width="35px" height="35px" class="cat_icon">
<g>
<path d="M13.5,10.2c0-0.2-0.2-0.3-0.3-0.3H8.5c-0.2,0-0.3,0.2-0.3,0.3c0,0.2,0.2,0.3,0.3,0.3h4.3v0.1c0,0.2,0.1,0.4,0.3,0.5
c0.1,0,0.1,0.1,0.2,0.1c0.1,0,0.2,0,0.3-0.1l1.5-1.2c0.1-0.1,0.2-0.3,0.2-0.4c0-0.2-0.1-0.3-0.2-0.4c-0.5-0.4-1-0.8-1.6-1.2
c-0.1-0.1-0.3-0.1-0.4-0.1c-0.1,0-0.3,0.1-0.3,0.3c0,0.1-0.1,0.2-0.1,0.3c0,0,0,0.1,0,0.1H8.5c-0.2,0-0.3,0.2-0.3,0.3
c0,0.2,0.2,0.3,0.3,0.3h4.6c0.2,0,0.3-0.2,0.3-0.3V8.6c0,0,0,0,0,0c0.4,0.3,0.8,0.6,1.1,0.9l-1.1,0.9L13.5,10.2z"/>
<path d="M23.3,12C23.3,12,23.3,12,23.3,12c0-0.1-0.1-0.1-0.1-0.2c0,0,0,0,0,0l-3.6-3.6c-0.1-0.1-0.2-0.1-0.3-0.1l-2.3,0V6.8
c0-0.7-0.6-1.3-1.3-1.3H6c-0.7,0-1.3,0.6-1.3,1.3c0,0.2,0.2,0.4,0.4,0.4S5.4,7,5.4,6.8c0-0.3,0.2-0.5,0.5-0.5h9.8
c0.3,0,0.5,0.2,0.5,0.5v1.8c0,0,0,0,0,0c0,0,0,0,0,0l0,4.7H5.1c-0.2,0-0.4,0.2-0.4,0.4v2C4.7,16.4,5.3,17,6,17h1.2
c0.2,0.9,1,1.6,1.9,1.6s1.8-0.7,1.9-1.6h5.7h0h0.9c0.2,0.9,1,1.6,1.9,1.6c1,0,1.8-0.7,1.9-1.6h1.4c0.2,0,0.4-0.2,0.4-0.4L23.3,12
L23.3,12L23.3,12C23.3,12.1,23.3,12.1,23.3,12z M22,11.7h-1.6l0.2-0.4c0.1-0.2,0-0.4-0.2-0.5c-0.2-0.1-0.4,0-0.5,0.2l-0.3,0.7h-2.5
l0-2.8l2.1,0L22,11.7z M9.1,17.8c-0.7,0-1.2-0.5-1.2-1.2s0.5-1.2,1.2-1.2c0.7,0,1.2,0.5,1.2,1.2S9.7,17.8,9.1,17.8z M9.1,14.6
c-1,0-1.8,0.7-1.9,1.6H6c-0.3,0-0.5-0.2-0.5-0.5V14h10.9l0,2.2H11C10.8,15.3,10,14.6,9.1,14.6z M19.5,17.8c-0.7,0-1.2-0.5-1.2-1.2
s0.5-1.2,1.2-1.2c0.7,0,1.2,0.5,1.2,1.2S20.2,17.8,19.5,17.8z M21.5,16.2c-0.2-0.9-1-1.6-1.9-1.6s-1.8,0.7-1.9,1.6h-0.5l0-2.5
c0,0,0,0,0,0c0,0,0,0,0,0l0-1.1h5.5l0,3.7H21.5z"/>
<circle cx="9.1" cy="16.6" r="0.5"/>
<circle cx="19.5" cy="16.6" r="0.5"/>
<path d="M7.2,7.7H4.5C4.4,7.7,4.2,7.8,4.2,8s0.2,0.3,0.3,0.3h2.6c0.2,0,0.3-0.2,0.3-0.3S7.3,7.7,7.2,7.7z"/>
<path d="M3.9,8c0-0.2-0.2-0.3-0.3-0.3H3.1C2.9,7.7,2.7,7.8,2.7,8s0.2,0.3,0.3,0.3h0.5C3.8,8.3,3.9,8.2,3.9,8z"/>
<path d="M2,8.3c0.2,0,0.3-0.2,0.3-0.3S2.2,7.7,2,7.7H1.8C1.6,7.7,1.4,7.8,1.4,8c0,0.2,0.2,0.3,0.3,0.3H2z"/>
<path d="M4.5,11.2h2.6c0.2,0,0.3-0.2,0.3-0.3c0-0.2-0.2-0.3-0.3-0.3H4.5c-0.2,0-0.3,0.2-0.3,0.3C4.2,11.1,4.4,11.2,4.5,11.2z"/>
<path d="M3.9,10.9c0-0.2-0.2-0.3-0.3-0.3H3.1c-0.2,0-0.3,0.2-0.3,0.3c0,0.2,0.2,0.3,0.3,0.3h0.5C3.8,11.2,3.9,11.1,3.9,10.9z"/>
<path d="M2,11.2c0.2,0,0.3-0.2,0.3-0.3c0-0.2-0.2-0.3-0.3-0.3H1.8c-0.2,0-0.3,0.2-0.3,0.3c0,0.2,0.2,0.3,0.3,0.3H2z"/>
<path d="M3.4,9.8H6c0.2,0,0.3-0.2,0.3-0.3c0-0.2-0.2-0.3-0.3-0.3H3.4c-0.2,0-0.3,0.2-0.3,0.3C3.1,9.6,3.2,9.8,3.4,9.8z"/>
<path d="M1.8,9.8h0.5c0.2,0,0.3-0.2,0.3-0.3c0-0.2-0.2-0.3-0.3-0.3H1.8c-0.2,0-0.3,0.2-0.3,0.3C1.4,9.6,1.6,9.8,1.8,9.8z"/>
<path d="M0.9,9.1H0.6c-0.2,0-0.3,0.2-0.3,0.3c0,0.2,0.2,0.3,0.3,0.3h0.3c0.2,0,0.3-0.2,0.3-0.3C1.2,9.3,1.1,9.1,0.9,9.1z"/>
<path d="M6.4,12.4c0-0.2-0.2-0.3-0.3-0.3H3.4c-0.2,0-0.3,0.2-0.3,0.3s0.2,0.3,0.3,0.3H6C6.2,12.7,6.4,12.6,6.4,12.4z"/>
<path d="M2.4,12H1.9c-0.2,0-0.3,0.2-0.3,0.3c0,0.2,0.2,0.3,0.3,0.3h0.5c0.2,0,0.3-0.2,0.3-0.3C2.8,12.1,2.6,12,2.4,12z"/>
<path d="M0.9,12H0.6c-0.2,0-0.3,0.2-0.3,0.3c0,0.2,0.2,0.3,0.3,0.3h0.3c0.2,0,0.3-0.2,0.3-0.3C1.2,12.1,1.1,12,0.9,12z"/>
</g>
</svg>